{
  "title": "Bespoken General E2E Test Results",
  "description": "A sample dashboard to display and track voice apps test results.",
  "widgets": [
    {
      "id": 8219427954294860,
      "definition": {
        "type": "timeseries",
        "requests": [
          {
            "q": "sum:utterance.success{$varCustomer}.as_count()",
            "display_type": "bars",
            "style": {
              "palette": "dog_classic",
              "line_type": "solid",
              "line_width": "normal"
            }
          },
          {
            "q": "sum:utterance.failure{$varCustomer}.as_count()",
            "display_type": "bars",
            "style": {
              "palette": "dog_classic",
              "line_type": "solid",
              "line_width": "normal"
            }
          },
          {
            "q": "sum:utterance.error{$varCustomer}.as_count()",
            "display_type": "bars",
            "style": {
              "palette": "dog_classic",
              "line_type": "solid",
              "line_width": "normal"
            }
          }
        ],
        "yaxis": {
          "label": "",
          "scale": "linear",
          "min": "auto",
          "max": "auto",
          "include_zero": true
        },
        "title": "Success/Failures By Period",
        "show_legend": false,
        "legend_size": "0"
      }
    },
    {
      "id": 4344367526950693,
      "definition": {
        "type": "query_table",
        "requests": [
          {
            "q": "sum:utterance.success{$varCustomer} by {customer}",
            "aggregator": "sum",
            "limit": 10,
            "order": "desc",
            "alias": "Success"
          },
          {
            "q": "sum:utterance.failure{$varCustomer} by {customer}",
            "aggregator": "sum",
            "alias": "Failure"
          },
          {
            "q": "sum:utterance.success{$varCustomer} by {customer}/(sum:utterance.success{$varCustomer} by {customer}+sum:utterance.failure{$varCustomer} by {customer})*100",
            "aggregator": "avg",
            "alias": "% Success"
          }
        ],
        "title": "Success/Failure By Customer"
      }
    },
    {
      "id": 1289813028557537,
      "definition": {
        "type": "query_table",
        "requests": [
          {
            "q": "sum:utterance.success{$varCustomer} by {run}",
            "aggregator": "sum",
            "limit": 10,
            "order": "desc",
            "alias": "Success"
          },
          {
            "q": "sum:utterance.failure{$varCustomer} by {run}",
            "aggregator": "sum",
            "alias": "Failure"
          },
          {
            "q": "sum:utterance.success{$varCustomer} by {run}/(sum:utterance.success{$varCustomer} by {run}+sum:utterance.failure{$varCustomer} by {run})*100",
            "aggregator": "avg",
            "alias": "% Success"
          }
        ],
        "title": "Success/Failure by Run"
      }
    },
    {
      "id": 1928324772396831,
      "definition": {
        "type": "query_table",
        "requests": [
          {
            "q": "top(avg:utterance.success{$varCustomer} by {utterance}.as_count()*100,10,'sum','asc')",
            "aggregator": "avg",
            "limit": 10,
            "order": "asc",
            "alias": "Success",
            "conditional_formats": [
              {
                "comparator": ">=",
                "value": 100,
                "palette": "white_on_green"
              },
              {
                "comparator": "<",
                "value": 80,
                "palette": "white_on_red"
              },
              {
                "comparator": "<",
                "value": 100,
                "palette": "white_on_yellow"
              }
            ]
          }
        ],
        "title": "Success/Failure by Station or Utterance"
      }
    },
    {
      "id": 2119883367923708,
      "definition": {
        "type": "timeseries",
        "requests": [
          {
            "q": "sum:utterance.success{$varCustomer}.as_count()",
            "display_type": "line",
            "style": {
              "palette": "cool",
              "line_type": "solid",
              "line_width": "normal"
            }
          },
          {
            "q": "sum:utterance.failure{$varCustomer}.as_count()",
            "display_type": "line",
            "style": {
              "palette": "warm",
              "line_type": "solid",
              "line_width": "normal"
            }
          }
        ],
        "yaxis": {
          "label": "",
          "scale": "linear",
          "min": "auto",
          "max": "auto",
          "include_zero": true
        },
        "title": "Cumulative Execution Results Over Time",
        "show_legend": false,
        "legend_size": "0"
      }
    },
    {
      "id": 7263610138364788,
      "definition": {
        "type": "query_table",
        "requests": [
          {
            "q": "sum:utterance.success{$varCustomer} by {job}",
            "aggregator": "sum",
            "limit": 10,
            "alias": "Success"
          },
          {
            "q": "sum:utterance.failure{$varCustomer} by {job}",
            "aggregator": "sum",
            "alias": "Failure"
          },
          {
            "q": "avg:utterance.success{$varCustomer} by {job}/(avg:utterance.success{$varCustomer} by {job}+avg:utterance.failure{$varCustomer} by {job})*100",
            "aggregator": "avg",
            "limit": 25,
            "order": "desc",
            "alias": "Success %"
          }
        ],
        "title": "Cumulative Testing Results"
      }
    }
  ],
  "template_variables": [
    {
      "name": "varCustomer",
      "default": "*",
      "prefix": "customer"
    }
  ],
  "layout_type": "ordered",
  "is_read_only": false,
  "notify_list": [],
  "id": "jy5-h96-wuu"
}